%YAML 1.1
%TAG !u! tag:unity3d.com,2011:
--- !u!54 &6190589380988749339
Rigidbody:
  m_ObjectHideFlags: 0
  m_CorrespondingSourceObject: {fileID: 0}
  m_PrefabInstance: {fileID: 0}
  m_PrefabAsset: {fileID: 0}
  m_GameObject: {fileID: 4941359414125437196}
  serializedVersion: 2
  m_Mass: 1
  m_Drag: 0
  m_AngularDrag: 0.05
  m_UseGravity: 1
  m_IsKinematic: 0
  m_Interpolate: 0
  m_Constraints: 126
  m_CollisionDetection: 0
--- !u!65 &5068521720839700454
BoxCollider:
  m_ObjectHideFlags: 0
  m_CorrespondingSourceObject: {fileID: 0}
  m_PrefabInstance: {fileID: 0}
  m_PrefabAsset: {fileID: 0}
  m_GameObject: {fileID: 4941359414125437196}
  m_Material: {fileID: 0}
  m_IsTrigger: 1
  m_Enabled: 1
  serializedVersion: 2
  m_Size: {x: 0.46739918, y: 0.08559368, z: 0.6615112}
  m_Center: {x: 0, y: 0.04279684, z: 0}
--- !u!82 &1633109113080986442
AudioSource:
  m_ObjectHideFlags: 0
  m_CorrespondingSourceObject: {fileID: 0}
  m_PrefabInstance: {fileID: 0}
  m_PrefabAsset: {fileID: 0}
  m_GameObject: {fileID: 4941359414125437196}
  m_Enabled: 1
  serializedVersion: 4
  OutputAudioMixerGroup: {fileID: 0}
  m_audioClip: {fileID: 8300000, guid: 145a331c2b88b344a85bb3e2ffa895a8, type: 3}
  m_PlayOnAwake: 0
  m_Volume: 1
  m_Pitch: 1
  Loop: 0
  Mute: 0
  Spatialize: 0
  SpatializePostEffects: 0
  Priority: 128
  DopplerLevel: 1
  MinDistance: 1
  MaxDistance: 500
  Pan2D: 0
  rolloffMode: 0
  BypassEffects: 0
  BypassListenerEffects: 0
  BypassReverbZones: 0
  rolloffCustomCurve:
    serializedVersion: 2
    m_Curve:
    - serializedVersion: 3
      time: 0
      value: 1
      inSlope: 0
      outSlope: 0
      tangentMode: 0
      weightedMode: 0
      inWeight: 0.33333334
      outWeight: 0.33333334
    - serializedVersion: 3
      time: 1
      value: 0
      inSlope: 0
      outSlope: 0
      tangentMode: 0
      weightedMode: 0
      inWeight: 0.33333334
      outWeight: 0.33333334
    m_PreInfinity: 2
    m_PostInfinity: 2
    m_RotationOrder: 4
  panLevelCustomCurve:
    serializedVersion: 2
    m_Curve:
    - serializedVersion: 3
      time: 0
      value: 0
      inSlope: 0
      outSlope: 0
      tangentMode: 0
      weightedMode: 0
      inWeight: 0.33333334
      outWeight: 0.33333334
    m_PreInfinity: 2
    m_PostInfinity: 2
    m_RotationOrder: 4
  spreadCustomCurve:
    serializedVersion: 2
    m_Curve:
    - serializedVersion: 3
      time: 0
      value: 0
      inSlope: 0
      outSlope: 0
      tangentMode: 0
      weightedMode: 0
      inWeight: 0.33333334
      outWeight: 0.33333334
    m_PreInfinity: 2
    m_PostInfinity: 2
    m_RotationOrder: 4
  reverbZoneMixCustomCurve:
    serializedVersion: 2
    m_Curve:
    - serializedVersion: 3
      time: 0
      value: 1
      inSlope: 0
      outSlope: 0
      tangentMode: 0
      weightedMode: 0
      inWeight: 0.33333334
      outWeight: 0.33333334
    m_PreInfinity: 2
    m_PostInfinity: 2
    m_RotationOrder: 4
--- !u!114 &2244085070717191246
MonoBehaviour:
  m_ObjectHideFlags: 0
  m_CorrespondingSourceObject: {fileID: 0}
  m_PrefabInstance: {fileID: 0}
  m_PrefabAsset: {fileID: 0}
  m_GameObject: {fileID: 4941359414125437196}
  m_Enabled: 1
  m_EditorHideFlags: 0
  m_Script: {fileID: 11500000, guid: 8cb52e33e07033d45ae45003b6437169, type: 3}
  m_Name: 
  m_EditorClassIdentifier: 
  rotateX: 0
  rotateY: 1
  rotateZ: 0
  speedX: 0
  speedY: 0.3
  speedZ: 0
--- !u!114 &9128661403657433927
MonoBehaviour:
  m_ObjectHideFlags: 0
  m_CorrespondingSourceObject: {fileID: 0}
  m_PrefabInstance: {fileID: 0}
  m_PrefabAsset: {fileID: 0}
  m_GameObject: {fileID: 4941359414125437196}
  m_Enabled: 1
  m_EditorHideFlags: 0
  m_Script: {fileID: 11500000, guid: 4c7474bb768d6cf43b3f592905d75f79, type: 3}
  m_Name: 
  m_EditorClassIdentifier: 
  item: {fileID: 11400000, guid: 4075fa81e14862841b8ce968282b4adf, type: 2}
--- !u!114 &3499949368010106165
MonoBehaviour:
  m_ObjectHideFlags: 0
  m_CorrespondingSourceObject: {fileID: 0}
  m_PrefabInstance: {fileID: 0}
  m_PrefabAsset: {fileID: 0}
  m_GameObject: {fileID: 4941359414125437196}
  m_Enabled: 1
  m_EditorHideFlags: 0
  m_Script: {fileID: 11500000, guid: 038a209dc5289ee40bc46168c1324a6a, type: 3}
  m_Name: 
  m_EditorClassIdentifier: 
--- !u!1001 &4941359414125487754
PrefabInstance:
  m_ObjectHideFlags: 0
  serializedVersion: 2
  m_Modification:
    m_TransformParent: {fileID: 0}
    m_Modifications:
    - target: {fileID: 116614, guid: 9f063c5e5835cbd4b8dc54a6c0b45db4, type: 3}
      propertyPath: m_Name
      value: Steak Variant
      objectReference: {fileID: 0}
    - target: {fileID: 116614, guid: 9f063c5e5835cbd4b8dc54a6c0b45db4, type: 3}
      propertyPath: m_TagString
      value: CanBePickedUp
      objectReference: {fileID: 0}
    - target: {fileID: 442954, guid: 9f063c5e5835cbd4b8dc54a6c0b45db4, type: 3}
      propertyPath: m_RootOrder
      value: 0
      objectReference: {fileID: 0}
    - target: {fileID: 442954, guid: 9f063c5e5835cbd4b8dc54a6c0b45db4, type: 3}
      propertyPath: m_LocalScale.x
      value: 3.9762
      objectReference: {fileID: 0}
    - target: {fileID: 442954, guid: 9f063c5e5835cbd4b8dc54a6c0b45db4, type: 3}
      propertyPath: m_LocalScale.y
      value: 3.9762
      objectReference: {fileID: 0}
    - target: {fileID: 442954, guid: 9f063c5e5835cbd4b8dc54a6c0b45db4, type: 3}
      propertyPath: m_LocalScale.z
      value: 3.9762
      objectReference: {fileID: 0}
    - target: {fileID: 442954, guid: 9f063c5e5835cbd4b8dc54a6c0b45db4, type: 3}
      propertyPath: m_LocalPosition.x
      value: -24.44
      objectReference: {fileID: 0}
    - target: {fileID: 442954, guid: 9f063c5e5835cbd4b8dc54a6c0b45db4, type: 3}
      propertyPath: m_LocalPosition.y
      value: -0.04
      objectReference: {fileID: 0}
    - target: {fileID: 442954, guid: 9f063c5e5835cbd4b8dc54a6c0b45db4, type: 3}
      propertyPath: m_LocalPosition.z
      value: 19.32
      objectReference: {fileID: 0}
    - target: {fileID: 442954, guid: 9f063c5e5835cbd4b8dc54a6c0b45db4, type: 3}
      propertyPath: m_LocalRotation.w
      value: 1
      objectReference: {fileID: 0}
    - target: {fileID: 442954, guid: 9f063c5e5835cbd4b8dc54a6c0b45db4, type: 3}
      propertyPath: m_LocalRotation.x
      value: 0
      objectReference: {fileID: 0}
    - target: {fileID: 442954, guid: 9f063c5e5835cbd4b8dc54a6c0b45db4, type: 3}
      propertyPath: m_LocalRotation.y
      value: 0
      objectReference: {fileID: 0}
    - target: {fileID: 442954, guid: 9f063c5e5835cbd4b8dc54a6c0b45db4, type: 3}
      propertyPath: m_LocalRotation.z
      value: 0
      objectReference: {fileID: 0}
    - target: {fileID: 442954, guid: 9f063c5e5835cbd4b8dc54a6c0b45db4, type: 3}
      propertyPath: m_LocalEulerAnglesHint.x
      value: 0
      objectReference: {fileID: 0}
    - target: {fileID: 442954, guid: 9f063c5e5835cbd4b8dc54a6c0b45db4, type: 3}
      propertyPath: m_LocalEulerAnglesHint.y
      value: 0
      objectReference: {fileID: 0}
    - target: {fileID: 442954, guid: 9f063c5e5835cbd4b8dc54a6c0b45db4, type: 3}
      propertyPath: m_LocalEulerAnglesHint.z
      value: 0
      objectReference: {fileID: 0}
    m_RemovedComponents: []
  m_SourcePrefab: {fileID: 100100000, guid: 9f063c5e5835cbd4b8dc54a6c0b45db4, type: 3}
--- !u!1 &4941359414125437196 stripped
GameObject:
  m_CorrespondingSourceObject: {fileID: 116614, guid: 9f063c5e5835cbd4b8dc54a6c0b45db4,
    type: 3}
  m_PrefabInstance: {fileID: 4941359414125487754}
  m_PrefabAsset: {fileID: 0}
